{
  "variables": {
    "ami_name": "ami-dockerimage101",
    "aws_access_key": "",
    "aws_secret_key": "",
    "base_ami": "ami-02f706d959cedf892",
    "vpc_id": "vpc-3de20056",
    "subnet_id": "subnet-2c222844",
    "instance_size": "t2.small",
    "ssh_username": "ec2-user"
  },
  "builders": [{
    "type": "amazon-ebs",
    "access_key": "{{user `aws_access_key`}}",
    "secret_key": "{{user `aws_secret_key`}}",
    "region": "us-east-2",
    "source_ami": "{{user `base_ami`}}",
    "instance_type": "{{user `instance_size`}}",
    "ssh_username": "{{user `ssh_username`}}",
    "ami_name": "{{user `ami_name`}}",
    "vpc_id": "{{user `vpc_id`}}",
    "subnet_id": "{{user `subnet_id`}}"
  }]
}
